6, 48, 12, 76, 39, 22, 46, 3, 81, 20
15, 9, 15, 52, 42, 91, 33, 12, 84, 94, 15, 71, 16, 48
36, 61, 38, 51, 56, 4, 36, 63, 36, 53, 77, 66, 14
57, 93, 66, 99, 93, 52, 45, 77, 40, 10, 46, 66, 15, 26, 27, 92
56, 62, 21, 48, 59, 9, 59, 88
66, 39, 87, 86, 22, 86, 2, 53, 18, 92, 34, 14, 66, 29
35, 51, 15, 52, 73, 5, 48, 88, 40, 1, 7, 72, 35, 27, 92
3, 82, 7, 91, 87, 13, 88, 99, 88
43, 49, 18, 84, 41, 31, 39, 85, 21, 23, 37, 6, 32, 19
24, 32, 43, 68, 28, 63, 44, 54, 17, 13, 86, 1, 40
49, 19, 6, 11, 37, 20, 69, 45, 92, 5, 8, 98, 31, 48, 87
21, 6, 9, 33, 62, 59, 40, 56, 16, 57, 71, 73, 88, 99, 16, 63
82, 24, 56, 72, 13, 90, 37, 41, 39, 72, 73, 54
27, 37, 97, 39, 23, 24, 89, 23
44, 50, 99, 81, 90, 46, 9, 64, 63
60, 25, 58, 79, 33, 10, 19, 62, 71, 40, 72, 25, 78, 5, 79
62, 49, 7, 16, 22, 94, 16, 89, 33
14, 80, 28, 11, 42, 58, 31, 48, 6
68, 62, 6, 3, 68, 24, 84, 97, 4, 62, 20, 93, 57, 34, 8, 8, 72
51, 9, 29, 90, 73, 41, 69, 62, 57, 64, 21, 97, 33, 68, 64, 19, 26
